{
  "development": {
    "api": {
      "port": 8080,
      "mailResponsable": "tim@hellozack.fr"
    },
    "database": {
      "port": 5432,
      "host": "localhost"
    }
  },
  "stage": {
    "api": {
      "port": 8080,
      "mailResponsable": "tim@hellozack.fr"
    },
    "database": {
      "port": 5432,
      "host": "ec2-54-247-98-162.eu-west-1.compute.amazonaws.com"
    }
  },
  "docker": {
    "api": {
      "port": 8080,
      "mailResponsable": "tim@hellozack.fr"
    },
    "database": {
      "port": 5432,
      "host": "pg-hellozack"
    }
  }
}